%YAML 1.1
%TAG !u! tag:unity3d.com,2011:
--- !u!29 &1
OcclusionCullingSettings:
  m_ObjectHideFlags: 0
  serializedVersion: 2
  m_OcclusionBakeSettings:
    smallestOccluder: 5
    smallestHole: 0.25
    backfaceThreshold: 100
  m_SceneGUID: 00000000000000000000000000000000
  m_OcclusionCullingData: {fileID: 0}
--- !u!104 &2
RenderSettings:
  m_ObjectHideFlags: 0
  serializedVersion: 9
  m_Fog: 0
  m_FogColor: {r: 0.5, g: 0.5, b: 0.5, a: 1}
  m_FogMode: 3
  m_FogDensity: 0.01
  m_LinearFogStart: 0
  m_LinearFogEnd: 300
  m_AmbientSkyColor: {r: 0.212, g: 0.227, b: 0.259, a: 1}
  m_AmbientEquatorColor: {r: 0.114, g: 0.125, b: 0.133, a: 1}
  m_AmbientGroundColor: {r: 0.047, g: 0.043, b: 0.035, a: 1}
  m_AmbientIntensity: 1
  m_AmbientMode: 0
  m_SubtractiveShadowColor: {r: 0.42, g: 0.478, b: 0.627, a: 1}
  m_SkyboxMaterial: {fileID: 10304, guid: 0000000000000000f000000000000000, type: 0}
  m_HaloStrength: 0.5
  m_FlareStrength: 1
  m_FlareFadeSpeed: 3
  m_HaloTexture: {fileID: 0}
  m_SpotCookie: {fileID: 10001, guid: 0000000000000000e000000000000000, type: 0}
  m_DefaultReflectionMode: 0
  m_DefaultReflectionResolution: 128
  m_ReflectionBounces: 1
  m_ReflectionIntensity: 1
  m_CustomReflection: {fileID: 0}
  m_Sun: {fileID: 0}
  m_IndirectSpecularColor: {r: 0.44657838, g: 0.49641234, b: 0.57481676, a: 1}
  m_UseRadianceAmbientProbe: 0
--- !u!157 &3
LightmapSettings:
  m_ObjectHideFlags: 0
  serializedVersion: 11
  m_GIWorkflowMode: 0
  m_GISettings:
    serializedVersion: 2
    m_BounceScale: 1
    m_IndirectOutputScale: 1
    m_AlbedoBoost: 1
    m_EnvironmentLightingMode: 0
    m_EnableBakedLightmaps: 1
    m_EnableRealtimeLightmaps: 1
  m_LightmapEditorSettings:
    serializedVersion: 10
    m_Resolution: 2
    m_BakeResolution: 40
    m_AtlasSize: 1024
    m_AO: 0
    m_AOMaxDistance: 1
    m_CompAOExponent: 1
    m_CompAOExponentDirect: 0
    m_Padding: 2
    m_LightmapParameters: {fileID: 0}
    m_LightmapsBakeMode: 1
    m_TextureCompression: 1
    m_FinalGather: 0
    m_FinalGatherFiltering: 1
    m_FinalGatherRayCount: 256
    m_ReflectionCompression: 2
    m_MixedBakeMode: 2
    m_BakeBackend: 1
    m_PVRSampling: 1
    m_PVRDirectSampleCount: 32
    m_PVRSampleCount: 500
    m_PVRBounces: 2
    m_PVRFilterTypeDirect: 0
    m_PVRFilterTypeIndirect: 0
    m_PVRFilterTypeAO: 0
    m_PVRFilteringMode: 1
    m_PVRCulling: 1
    m_PVRFilteringGaussRadiusDirect: 1
    m_PVRFilteringGaussRadiusIndirect: 5
    m_PVRFilteringGaussRadiusAO: 2
    m_PVRFilteringAtrousPositionSigmaDirect: 0.5
    m_PVRFilteringAtrousPositionSigmaIndirect: 2
    m_PVRFilteringAtrousPositionSigmaAO: 1
    m_ShowResolutionOverlay: 1
  m_LightingDataAsset: {fileID: 0}
  m_UseShadowmask: 1
--- !u!196 &4
NavMeshSettings:
  serializedVersion: 2
  m_ObjectHideFlags: 0
  m_BuildSettings:
    serializedVersion: 2
    agentTypeID: 0
    agentRadius: 0.5
    agentHeight: 2
    agentSlope: 45
    agentClimb: 0.4
    ledgeDropHeight: 0
    maxJumpAcrossDistance: 0
    minRegionArea: 2
    manualCellSize: 0
    cellSize: 0.16666667
    manualTileSize: 0
    tileSize: 256
    accuratePlacement: 0
    debug:
      m_Flags: 0
  m_NavMeshData: {fileID: 0}
--- !u!1001 &251691234
PrefabInstance:
  m_ObjectHideFlags: 0
  serializedVersion: 2
  m_Modification:
    m_TransformParent: {fileID: 822758257}
    m_Modifications:
    - target: {fileID: 1078755997285888, guid: f8f67d766d3ce4631a946298773ec89d, type: 3}
      propertyPath: m_Name
      value: Arrow (8)
      objectReference: {fileID: 0}
    - target: {fileID: 4765971397706330, guid: f8f67d766d3ce4631a946298773ec89d, type: 3}
      propertyPath: m_LocalPosition.x
      value: -0.04
      objectReference: {fileID: 0}
    - target: {fileID: 4765971397706330, guid: f8f67d766d3ce4631a946298773ec89d, type: 3}
      propertyPath: m_LocalPosition.y
      value: 0
      objectReference: {fileID: 0}
    - target: {fileID: 4765971397706330, guid: f8f67d766d3ce4631a946298773ec89d, type: 3}
      propertyPath: m_LocalPosition.z
      value: 5.92
      objectReference: {fileID: 0}
    - target: {fileID: 4765971397706330, guid: f8f67d766d3ce4631a946298773ec89d, type: 3}
      propertyPath: m_LocalRotation.x
      value: -0
      objectReference: {fileID: 0}
    - target: {fileID: 4765971397706330, guid: f8f67d766d3ce4631a946298773ec89d, type: 3}
      propertyPath: m_LocalRotation.y
      value: -0
      objectReference: {fileID: 0}
    - target: {fileID: 4765971397706330, guid: f8f67d766d3ce4631a946298773ec89d, type: 3}
      propertyPath: m_LocalRotation.z
      value: -0
      objectReference: {fileID: 0}
    - target: {fileID: 4765971397706330, guid: f8f67d766d3ce4631a946298773ec89d, type: 3}
      propertyPath: m_LocalRotation.w
      value: 1
      objectReference: {fileID: 0}
    - target: {fileID: 4765971397706330, guid: f8f67d766d3ce4631a946298773ec89d, type: 3}
      propertyPath: m_RootOrder
      value: 8
      objectReference: {fileID: 0}
    - target: {fileID: 4765971397706330, guid: f8f67d766d3ce4631a946298773ec89d, type: 3}
      propertyPath: m_LocalScale.x
      value: 0.29999998
      objectReference: {fileID: 0}
    - target: {fileID: 4765971397706330, guid: f8f67d766d3ce4631a946298773ec89d, type: 3}
      propertyPath: m_LocalScale.y
      value: 0.29999998
      objectReference: {fileID: 0}
    - target: {fileID: 4765971397706330, guid: f8f67d766d3ce4631a946298773ec89d, type: 3}
      propertyPath: m_LocalScale.z
      value: 0.29999998
      objectReference: {fileID: 0}
    m_RemovedComponents: []
  m_SourcePrefab: {fileID: 100100000, guid: f8f67d766d3ce4631a946298773ec89d, type: 3}
--- !u!4 &251691235 stripped
Transform:
  m_CorrespondingSourceObject: {fileID: 4765971397706330, guid: f8f67d766d3ce4631a946298773ec89d,
    type: 3}
  m_PrefabInstance: {fileID: 251691234}
  m_PrefabAsset: {fileID: 0}
--- !u!1 &289462991
GameObject:
  m_ObjectHideFlags: 0
  m_CorrespondingSourceObject: {fileID: 0}
  m_PrefabInstance: {fileID: 0}
  m_PrefabAsset: {fileID: 0}
  serializedVersion: 6
  m_Component:
  - component: {fileID: 289462993}
  - component: {fileID: 289462992}
  m_Layer: 0
  m_Name: Directional Light
  m_TagString: Untagged
  m_Icon: {fileID: 0}
  m_NavMeshLayer: 0
  m_StaticEditorFlags: 0
  m_IsActive: 1
--- !u!108 &289462992
Light:
  m_ObjectHideFlags: 0
  m_CorrespondingSourceObject: {fileID: 0}
  m_PrefabInstance: {fileID: 0}
  m_PrefabAsset: {fileID: 0}
  m_GameObject: {fileID: 289462991}
  m_Enabled: 1
  serializedVersion: 8
  m_Type: 1
  m_Color: {r: 1, g: 0.95686275, b: 0.8392157, a: 1}
  m_Intensity: 1
  m_Range: 10
  m_SpotAngle: 30
  m_CookieSize: 10
  m_Shadows:
    m_Type: 0
    m_Resolution: -1
    m_CustomResolution: -1
    m_Strength: 1
    m_Bias: 0.05
    m_NormalBias: 0.4
    m_NearPlane: 0.2
  m_Cookie: {fileID: 0}
  m_DrawHalo: 0
  m_Flare: {fileID: 0}
  m_RenderMode: 0
  m_CullingMask:
    serializedVersion: 2
    m_Bits: 4294967295
  m_Lightmapping: 4
  m_LightShadowCasterMode: 0
  m_AreaSize: {x: 1, y: 1}
  m_BounceIntensity: 1
  m_ColorTemperature: 6570
  m_UseColorTemperature: 0
  m_ShadowRadius: 0
  m_ShadowAngle: 0
--- !u!4 &289462993
Transform:
  m_ObjectHideFlags: 0
  m_CorrespondingSourceObject: {fileID: 0}
  m_PrefabInstance: {fileID: 0}
  m_PrefabAsset: {fileID: 0}
  m_GameObject: {fileID: 289462991}
  m_LocalRotation: {x: 0.40821788, y: -0.23456968, z: 0.10938163, w: 0.8754261}
  m_LocalPosition: {x: 0, y: 3, z: 0}
  m_LocalScale: {x: 1, y: 1, z: 1}
  m_Children: []
  m_Father: {fileID: 0}
  m_RootOrder: 1
  m_LocalEulerAnglesHint: {x: 50, y: -30, z: 0}
--- !u!1001 &311395762
PrefabInstance:
  m_ObjectHideFlags: 0
  serializedVersion: 2
  m_Modification:
    m_TransformParent: {fileID: 822758257}
    m_Modifications:
    - target: {fileID: 1078755997285888, guid: f8f67d766d3ce4631a946298773ec89d, type: 3}
      propertyPath: m_Name
      value: Arrow (1)
      objectReference: {fileID: 0}
    - target: {fileID: 4765971397706330, guid: f8f67d766d3ce4631a946298773ec89d, type: 3}
      propertyPath: m_LocalPosition.x
      value: -0.025
      objectReference: {fileID: 0}
    - target: {fileID: 4765971397706330, guid: f8f67d766d3ce4631a946298773ec89d, type: 3}
      propertyPath: m_LocalPosition.y
      value: 0
      objectReference: {fileID: 0}
    - target: {fileID: 4765971397706330, guid: f8f67d766d3ce4631a946298773ec89d, type: 3}
      propertyPath: m_LocalPosition.z
      value: 1.98
      objectReference: {fileID: 0}
    - target: {fileID: 4765971397706330, guid: f8f67d766d3ce4631a946298773ec89d, type: 3}
      propertyPath: m_LocalRotation.x
      value: -0
      objectReference: {fileID: 0}
    - target: {fileID: 4765971397706330, guid: f8f67d766d3ce4631a946298773ec89d, type: 3}
      propertyPath: m_LocalRotation.y
      value: -0
      objectReference: {fileID: 0}
    - target: {fileID: 4765971397706330, guid: f8f67d766d3ce4631a946298773ec89d, type: 3}
      propertyPath: m_LocalRotation.z
      value: -0
      objectReference: {fileID: 0}
    - target: {fileID: 4765971397706330, guid: f8f67d766d3ce4631a946298773ec89d, type: 3}
      propertyPath: m_LocalRotation.w
      value: 1
      objectReference: {fileID: 0}
    - target: {fileID: 4765971397706330, guid: f8f67d766d3ce4631a946298773ec89d, type: 3}
      propertyPath: m_RootOrder
      value: 1
      objectReference: {fileID: 0}
    - target: {fileID: 4765971397706330, guid: f8f67d766d3ce4631a946298773ec89d, type: 3}
      propertyPath: m_LocalScale.x
      value: 0.29999998
      objectReference: {fileID: 0}
    - target: {fileID: 4765971397706330, guid: f8f67d766d3ce4631a946298773ec89d, type: 3}
      propertyPath: m_LocalScale.y
      value: 0.29999998
      objectReference: {fileID: 0}
    - target: {fileID: 4765971397706330, guid: f8f67d766d3ce4631a946298773ec89d, type: 3}
      propertyPath: m_LocalScale.z
      value: 0.29999998
      objectReference: {fileID: 0}
    m_RemovedComponents: []
  m_SourcePrefab: {fileID: 100100000, guid: f8f67d766d3ce4631a946298773ec89d, type: 3}
--- !u!4 &311395763 stripped
Transform:
  m_CorrespondingSourceObject: {fileID: 4765971397706330, guid: f8f67d766d3ce4631a946298773ec89d,
    type: 3}
  m_PrefabInstance: {fileID: 311395762}
  m_PrefabAsset: {fileID: 0}
--- !u!1 &491981351
GameObject:
  m_ObjectHideFlags: 0
  m_CorrespondingSourceObject: {fileID: 0}
  m_PrefabInstance: {fileID: 0}
  m_PrefabAsset: {fileID: 0}
  serializedVersion: 6
  m_Component:
  - component: {fileID: 491981352}
  - component: {fileID: 491981354}
  - component: {fileID: 491981353}
  m_Layer: 5
  m_Name: txtDebug
  m_TagString: Untagged
  m_Icon: {fileID: 0}
  m_NavMeshLayer: 0
  m_StaticEditorFlags: 0
  m_IsActive: 1
--- !u!224 &491981352
RectTransform:
  m_ObjectHideFlags: 0
  m_CorrespondingSourceObject: {fileID: 0}
  m_PrefabInstance: {fileID: 0}
  m_PrefabAsset: {fileID: 0}
  m_GameObject: {fileID: 491981351}
  m_LocalRotation: {x: 0, y: 0, z: 0, w: 1}
  m_LocalPosition: {x: 0, y: 0, z: 0}
  m_LocalScale: {x: 1, y: 1, z: 1}
  m_Children: []
  m_Father: {fileID: 766341134}
  m_RootOrder: 0
  m_LocalEulerAnglesHint: {x: 0, y: 0, z: 0}
  m_AnchorMin: {x: 0.5, y: 0.5}
  m_AnchorMax: {x: 0.5, y: 0.5}
  m_AnchoredPosition: {x: 0, y: -16.19}
  m_SizeDelta: {x: 160, y: 30}
  m_Pivot: {x: 0.5, y: 0.5}
--- !u!114 &491981353
MonoBehaviour:
  m_ObjectHideFlags: 0
  m_CorrespondingSourceObject: {fileID: 0}
  m_PrefabInstance: {fileID: 0}
  m_PrefabAsset: {fileID: 0}
  m_GameObject: {fileID: 491981351}
  m_Enabled: 1
  m_EditorHideFlags: 0
  m_Script: {fileID: 708705254, guid: f70555f144d8491a825f0804e09c671c, type: 3}
  m_Name: 
  m_EditorClassIdentifier: 
  m_Material: {fileID: 0}
  m_Color: {r: 1, g: 1, b: 1, a: 1}
  m_RaycastTarget: 1
  m_OnCullStateChanged:
    m_PersistentCalls:
      m_Calls: []
    m_TypeName: UnityEngine.UI.MaskableGraphic+CullStateChangedEvent, UnityEngine.UI,
      Version=1.0.0.0, Culture=neutral, PublicKeyToken=null
  m_FontData:
    m_Font: {fileID: 10102, guid: 0000000000000000e000000000000000, type: 0}
    m_FontSize: 120
    m_FontStyle: 0
    m_BestFit: 0
    m_MinSize: 10
    m_MaxSize: 120
    m_Alignment: 4
    m_AlignByGeometry: 0
    m_RichText: 1
    m_HorizontalOverflow: 1
    m_VerticalOverflow: 1
    m_LineSpacing: 1
  m_Text: 
--- !u!222 &491981354
CanvasRenderer:
  m_ObjectHideFlags: 0
  m_CorrespondingSourceObject: {fileID: 0}
  m_PrefabInstance: {fileID: 0}
  m_PrefabAsset: {fileID: 0}
  m_GameObject: {fileID: 491981351}
  m_CullTransparentMesh: 0
--- !u!1001 &498201548
PrefabInstance:
  m_ObjectHideFlags: 0
  serializedVersion: 2
  m_Modification:
    m_TransformParent: {fileID: 822758257}
    m_Modifications:
    - target: {fileID: 1078755997285888, guid: f8f67d766d3ce4631a946298773ec89d, type: 3}
      propertyPath: m_Name
      value: Arrow (6)
      objectReference: {fileID: 0}
    - target: {fileID: 4765971397706330, guid: f8f67d766d3ce4631a946298773ec89d, type: 3}
      propertyPath: m_LocalPosition.x
      value: 0.94
      objectReference: {fileID: 0}
    - target: {fileID: 4765971397706330, guid: f8f67d766d3ce4631a946298773ec89d, type: 3}
      propertyPath: m_LocalPosition.y
      value: 0
      objectReference: {fileID: 0}
    - target: {fileID: 4765971397706330, guid: f8f67d766d3ce4631a946298773ec89d, type: 3}
      propertyPath: m_LocalPosition.z
      value: 3.955
      objectReference: {fileID: 0}
    - target: {fileID: 4765971397706330, guid: f8f67d766d3ce4631a946298773ec89d, type: 3}
      propertyPath: m_LocalRotation.x
      value: -0
      objectReference: {fileID: 0}
    - target: {fileID: 4765971397706330, guid: f8f67d766d3ce4631a946298773ec89d, type: 3}
      propertyPath: m_LocalRotation.y
      value: -0
      objectReference: {fileID: 0}
    - target: {fileID: 4765971397706330, guid: f8f67d766d3ce4631a946298773ec89d, type: 3}
      propertyPath: m_LocalRotation.z
      value: -0
      objectReference: {fileID: 0}
    - target: {fileID: 4765971397706330, guid: f8f67d766d3ce4631a946298773ec89d, type: 3}
      propertyPath: m_LocalRotation.w
      value: 1
      objectReference: {fileID: 0}
    - target: {fileID: 4765971397706330, guid: f8f67d766d3ce4631a946298773ec89d, type: 3}
      propertyPath: m_RootOrder
      value: 6
      objectReference: {fileID: 0}
    - target: {fileID: 4765971397706330, guid: f8f67d766d3ce4631a946298773ec89d, type: 3}
      propertyPath: m_LocalScale.x
      value: 0.29999998
      objectReference: {fileID: 0}
    - target: {fileID: 4765971397706330, guid: f8f67d766d3ce4631a946298773ec89d, type: 3}
      propertyPath: m_LocalScale.y
      value: 0.29999998
      objectReference: {fileID: 0}
    - target: {fileID: 4765971397706330, guid: f8f67d766d3ce4631a946298773ec89d, type: 3}
      propertyPath: m_LocalScale.z
      value: 0.29999998
      objectReference: {fileID: 0}
    m_RemovedComponents: []
  m_SourcePrefab: {fileID: 100100000, guid: f8f67d766d3ce4631a946298773ec89d, type: 3}
--- !u!4 &498201549 stripped
Transform:
  m_CorrespondingSourceObject: {fileID: 4765971397706330, guid: f8f67d766d3ce4631a946298773ec89d,
    type: 3}
  m_PrefabInstance: {fileID: 498201548}
  m_PrefabAsset: {fileID: 0}
--- !u!1001 &573644917
PrefabInstance:
  m_ObjectHideFlags: 0
  serializedVersion: 2
  m_Modification:
    m_TransformParent: {fileID: 822758257}
    m_Modifications:
    - target: {fileID: 1078755997285888, guid: f8f67d766d3ce4631a946298773ec89d, type: 3}
      propertyPath: m_Name
      value: Arrow (10)
      objectReference: {fileID: 0}
    - target: {fileID: 4765971397706330, guid: f8f67d766d3ce4631a946298773ec89d, type: 3}
      propertyPath: m_LocalPosition.x
      value: 0
      objectReference: {fileID: 0}
    - target: {fileID: 4765971397706330, guid: f8f67d766d3ce4631a946298773ec89d, type: 3}
      propertyPath: m_LocalPosition.y
      value: 0
      objectReference: {fileID: 0}
    - target: {fileID: 4765971397706330, guid: f8f67d766d3ce4631a946298773ec89d, type: 3}
      propertyPath: m_LocalPosition.z
      value: 0.05
      objectReference: {fileID: 0}
    - target: {fileID: 4765971397706330, guid: f8f67d766d3ce4631a946298773ec89d, type: 3}
      propertyPath: m_LocalRotation.x
      value: -0
      objectReference: {fileID: 0}
    - target: {fileID: 4765971397706330, guid: f8f67d766d3ce4631a946298773ec89d, type: 3}
      propertyPath: m_LocalRotation.y
      value: -0
      objectReference: {fileID: 0}
    - target: {fileID: 4765971397706330, guid: f8f67d766d3ce4631a946298773ec89d, type: 3}
      propertyPath: m_LocalRotation.z
      value: -0
      objectReference: {fileID: 0}
    - target: {fileID: 4765971397706330, guid: f8f67d766d3ce4631a946298773ec89d, type: 3}
      propertyPath: m_LocalRotation.w
      value: 1
      objectReference: {fileID: 0}
    - target: {fileID: 4765971397706330, guid: f8f67d766d3ce4631a946298773ec89d, type: 3}
      propertyPath: m_RootOrder
      value: 11
      objectReference: {fileID: 0}
    - target: {fileID: 4765971397706330, guid: f8f67d766d3ce4631a946298773ec89d, type: 3}
      propertyPath: m_LocalScale.x
      value: 0.29999998
      objectReference: {fileID: 0}
    - target: {fileID: 4765971397706330, guid: f8f67d766d3ce4631a946298773ec89d, type: 3}
      propertyPath: m_LocalScale.y
      value: 0.29999998
      objectReference: {fileID: 0}
    - target: {fileID: 4765971397706330, guid: f8f67d766d3ce4631a946298773ec89d, type: 3}
      propertyPath: m_LocalScale.z
      value: 0.29999998
      objectReference: {fileID: 0}
    m_RemovedComponents: []
  m_SourcePrefab: {fileID: 100100000, guid: f8f67d766d3ce4631a946298773ec89d, type: 3}
--- !u!4 &573644918 stripped
Transform:
  m_CorrespondingSourceObject: {fileID: 4765971397706330, guid: f8f67d766d3ce4631a946298773ec89d,
    type: 3}
  m_PrefabInstance: {fileID: 573644917}
  m_PrefabAsset: {fileID: 0}
--- !u!1001 &648899108
PrefabInstance:
  m_ObjectHideFlags: 0
  serializedVersion: 2
  m_Modification:
    m_TransformParent: {fileID: 822758257}
    m_Modifications:
    - target: {fileID: 1078755997285888, guid: f8f67d766d3ce4631a946298773ec89d, type: 3}
      propertyPath: m_Name
      value: Arrow (11)
      objectReference: {fileID: 0}
    - target: {fileID: 4765971397706330, guid: f8f67d766d3ce4631a946298773ec89d, type: 3}
      propertyPath: m_LocalPosition.x
      value: 0.21
      objectReference: {fileID: 0}
    - target: {fileID: 4765971397706330, guid: f8f67d766d3ce4631a946298773ec89d, type: 3}
      propertyPath: m_LocalPosition.y
      value: 0
      objectReference: {fileID: 0}
    - target: {fileID: 4765971397706330, guid: f8f67d766d3ce4631a946298773ec89d, type: 3}
      propertyPath: m_LocalPosition.z
      value: -0.77
      objectReference: {fileID: 0}
    - target: {fileID: 4765971397706330, guid: f8f67d766d3ce4631a946298773ec89d, type: 3}
      propertyPath: m_LocalRotation.x
      value: -0
      objectReference: {fileID: 0}
    - target: {fileID: 4765971397706330, guid: f8f67d766d3ce4631a946298773ec89d, type: 3}
      propertyPath: m_LocalRotation.y
      value: -0
      objectReference: {fileID: 0}
    - target: {fileID: 4765971397706330, guid: f8f67d766d3ce4631a946298773ec89d, type: 3}
      propertyPath: m_LocalRotation.z
      value: -0
      objectReference: {fileID: 0}
    - target: {fileID: 4765971397706330, guid: f8f67d766d3ce4631a946298773ec89d, type: 3}
      propertyPath: m_LocalRotation.w
      value: 1
      objectReference: {fileID: 0}
    - target: {fileID: 4765971397706330, guid: f8f67d766d3ce4631a946298773ec89d, type: 3}
      propertyPath: m_RootOrder
      value: 12
      objectReference: {fileID: 0}
    - target: {fileID: 4765971397706330, guid: f8f67d766d3ce4631a946298773ec89d, type: 3}
      propertyPath: m_LocalScale.x
      value: 0.29999998
      objectReference: {fileID: 0}
    - target: {fileID: 4765971397706330, guid: f8f67d766d3ce4631a946298773ec89d, type: 3}
      propertyPath: m_LocalScale.y
      value: 0.29999998
      objectReference: {fileID: 0}
    - target: {fileID: 4765971397706330, guid: f8f67d766d3ce4631a946298773ec89d, type: 3}
      propertyPath: m_LocalScale.z
      value: 0.29999998
      objectReference: {fileID: 0}
    m_RemovedComponents: []
  m_SourcePrefab: {fileID: 100100000, guid: f8f67d766d3ce4631a946298773ec89d, type: 3}
--- !u!4 &648899109 stripped
Transform:
  m_CorrespondingSourceObject: {fileID: 4765971397706330, guid: f8f67d766d3ce4631a946298773ec89d,
    type: 3}
  m_PrefabInstance: {fileID: 648899108}
  m_PrefabAsset: {fileID: 0}
--- !u!1 &649884432
GameObject:
  m_ObjectHideFlags: 0
  m_CorrespondingSourceObject: {fileID: 0}
  m_PrefabInstance: {fileID: 0}
  m_PrefabAsset: {fileID: 0}
  serializedVersion: 6
  m_Component:
  - component: {fileID: 649884435}
  - component: {fileID: 649884434}
  - component: {fileID: 649884433}
  m_Layer: 0
  m_Name: EventSystem
  m_TagString: Untagged
  m_Icon: {fileID: 0}
  m_NavMeshLayer: 0
  m_StaticEditorFlags: 0
  m_IsActive: 1
--- !u!114 &649884433
MonoBehaviour:
  m_ObjectHideFlags: 0
  m_CorrespondingSourceObject: {fileID: 0}
  m_PrefabInstance: {fileID: 0}
  m_PrefabAsset: {fileID: 0}
  m_GameObject: {fileID: 649884432}
  m_Enabled: 1
  m_EditorHideFlags: 0
  m_Script: {fileID: 1077351063, guid: f70555f144d8491a825f0804e09c671c, type: 3}
  m_Name: 
  m_EditorClassIdentifier: 
  m_HorizontalAxis: Horizontal
  m_VerticalAxis: Vertical
  m_SubmitButton: Submit
  m_CancelButton: Cancel
  m_InputActionsPerSecond: 10
  m_RepeatDelay: 0.5
  m_ForceModuleActive: 0
--- !u!114 &649884434
MonoBehaviour:
  m_ObjectHideFlags: 0
  m_CorrespondingSourceObject: {fileID: 0}
  m_PrefabInstance: {fileID: 0}
  m_PrefabAsset: {fileID: 0}
  m_GameObject: {fileID: 649884432}
  m_Enabled: 1
  m_EditorHideFlags: 0
  m_Script: {fileID: -619905303, guid: f70555f144d8491a825f0804e09c671c, type: 3}
  m_Name: 
  m_EditorClassIdentifier: 
  m_FirstSelected: {fileID: 0}
  m_sendNavigationEvents: 1
  m_DragThreshold: 5
--- !u!4 &649884435
Transform:
  m_ObjectHideFlags: 0
  m_CorrespondingSourceObject: {fileID: 0}
  m_PrefabInstance: {fileID: 0}
  m_PrefabAsset: {fileID: 0}
  m_GameObject: {fileID: 649884432}
  m_LocalRotation: {x: 0, y: 0, z: 0, w: 1}
  m_LocalPosition: {x: 0, y: 0, z: 0}
  m_LocalScale: {x: 1, y: 1, z: 1}
  m_Children: []
  m_Father: {fileID: 0}
  m_RootOrder: 2
  m_LocalEulerAnglesHint: {x: 0, y: 0, z: 0}
--- !u!1 &766341133
GameObject:
  m_ObjectHideFlags: 0
  m_CorrespondingSourceObject: {fileID: 0}
  m_PrefabInstance: {fileID: 0}
  m_PrefabAsset: {fileID: 0}
  serializedVersion: 6
  m_Component:
  - component: {fileID: 766341134}
  - component: {fileID: 766341139}
  - component: {fileID: 766341138}
  - component: {fileID: 766341136}
  - component: {fileID: 766341135}
  - component: {fileID: 766341137}
  m_Layer: 5
  m_Name: MainPanel
  m_TagString: Untagged
  m_Icon: {fileID: 0}
  m_NavMeshLayer: 0
  m_StaticEditorFlags: 0
  m_IsActive: 1
--- !u!224 &766341134
RectTransform:
  m_ObjectHideFlags: 0
  m_CorrespondingSourceObject: {fileID: 0}
  m_PrefabInstance: {fileID: 0}
  m_PrefabAsset: {fileID: 0}
  m_GameObject: {fileID: 766341133}
  m_LocalRotation: {x: 0, y: 0, z: 0, w: 1}
  m_LocalPosition: {x: 0, y: 0, z: 0}
  m_LocalScale: {x: 1, y: 1, z: 1}
  m_Children:
  - {fileID: 491981352}
  m_Father: {fileID: 2008001057}
  m_RootOrder: 0
  m_LocalEulerAnglesHint: {x: 0, y: 0, z: 0}
  m_AnchorMin: {x: 0, y: 0}
  m_AnchorMax: {x: 1, y: 1}
  m_AnchoredPosition: {x: 0, y: 0}
  m_SizeDelta: {x: 0, y: 0}
  m_Pivot: {x: 0.5, y: 0.5}
--- !u!114 &766341135
MonoBehaviour:
  m_ObjectHideFlags: 0
  m_CorrespondingSourceObject: {fileID: 0}
  m_PrefabInstance: {fileID: 0}
  m_PrefabAsset: {fileID: 0}
  m_GameObject: {fileID: 766341133}
  m_Enabled: 1
  m_EditorHideFlags: 0
  m_Script: {fileID: 11500000, guid: 9dfd9a04614224bb6b59f3aba3a84e72, type: 3}
  m_Name: 
  m_EditorClassIdentifier: 
--- !u!114 &766341136
MonoBehaviour:
  m_ObjectHideFlags: 0
  m_CorrespondingSourceObject: {fileID: 0}
  m_PrefabInstance: {fileID: 0}
  m_PrefabAsset: {fileID: 0}
  m_GameObject: {fileID: 766341133}
  m_Enabled: 1
  m_EditorHideFlags: 0
  m_Script: {fileID: 11500000, guid: 79300b06bab93423993c4c10e67efb8f, type: 3}
  m_Name: 
  m_EditorClassIdentifier: 
--- !u!114 &766341137
MonoBehaviour:
  m_ObjectHideFlags: 0
  m_CorrespondingSourceObject: {fileID: 0}
  m_PrefabInstance: {fileID: 0}
  m_PrefabAsset: {fileID: 0}
  m_GameObject: {fileID: 766341133}
  m_Enabled: 1
  m_EditorHideFlags: 0
  m_Script: {fileID: 11500000, guid: 1230385270b634cfc9f9dcb3cea1bb82, type: 3}
  m_Name: 
  m_EditorClassIdentifier: 
  navController: {fileID: 1799867782}
  ShapePrefabs:
  - {fileID: 1417247514451880, guid: 756520d3983b446779ee0b9bbd119c15, type: 3}
  - {fileID: 1160887633394466, guid: eedaac2fc25db4ab99371a7c1f59dd58, type: 3}
  - {fileID: 1078755997285888, guid: f8f67d766d3ce4631a946298773ec89d, type: 3}
  shapeInfoList: []
  shapeObjList: []
--- !u!114 &766341138
MonoBehaviour:
  m_ObjectHideFlags: 0
  m_CorrespondingSourceObject: {fileID: 0}
  m_PrefabInstance: {fileID: 0}
  m_PrefabAsset: {fileID: 0}
  m_GameObject: {fileID: 766341133}
  m_Enabled: 1
  m_EditorHideFlags: 0
  m_Script: {fileID: -765806418, guid: f70555f144d8491a825f0804e09c671c, type: 3}
  m_Name: 
  m_EditorClassIdentifier: 
  m_Material: {fileID: 0}
  m_Color: {r: 1, g: 1, b: 1, a: 0}
  m_RaycastTarget: 1
  m_OnCullStateChanged:
    m_PersistentCalls:
      m_Calls: []
    m_TypeName: UnityEngine.UI.MaskableGraphic+CullStateChangedEvent, UnityEngine.UI,
      Version=1.0.0.0, Culture=neutral, PublicKeyToken=null
  m_Sprite: {fileID: 0}
  m_Type: 1
  m_PreserveAspect: 0
  m_FillCenter: 1
  m_FillMethod: 4
  m_FillAmount: 1
  m_FillClockwise: 1
  m_FillOrigin: 0
  m_UseSpriteMesh: 0
--- !u!222 &766341139
CanvasRenderer:
  m_ObjectHideFlags: 0
  m_CorrespondingSourceObject: {fileID: 0}
  m_PrefabInstance: {fileID: 0}
  m_PrefabAsset: {fileID: 0}
  m_GameObject: {fileID: 766341133}
  m_CullTransparentMesh: 0
--- !u!1 &822758256
GameObject:
  m_ObjectHideFlags: 0
  m_CorrespondingSourceObject: {fileID: 0}
  m_PrefabInstance: {fileID: 0}
  m_PrefabAsset: {fileID: 0}
  serializedVersion: 6
  m_Component:
  - component: {fileID: 822758257}
  m_Layer: 0
  m_Name: DISABLE!!
  m_TagString: Untagged
  m_Icon: {fileID: 0}
  m_NavMeshLayer: 0
  m_StaticEditorFlags: 0
  m_IsActive: 0
--- !u!4 &822758257
Transform:
  m_ObjectHideFlags: 0
  m_CorrespondingSourceObject: {fileID: 0}
  m_PrefabInstance: {fileID: 0}
  m_PrefabAsset: {fileID: 0}
  m_GameObject: {fileID: 822758256}
  m_LocalRotation: {x: -0, y: -0, z: -0, w: 1}
  m_LocalPosition: {x: 0.41, y: 0, z: 4.22}
  m_LocalScale: {x: 1, y: 1, z: 1}
  m_Children:
  - {fileID: 1478039726}
  - {fileID: 311395763}
  - {fileID: 1595085415}
  - {fileID: 1303295885}
  - {fileID: 1862581022}
  - {fileID: 1040061948}
  - {fileID: 498201549}
  - {fileID: 1011075449}
  - {fileID: 251691235}
  - {fileID: 1622394614}
  - {fileID: 1333720170}
  - {fileID: 573644918}
  - {fileID: 648899109}
  - {fileID: 1241724776}
  - {fileID: 1702714617}
  - {fileID: 1855402968}
  - {fileID: 1150129053}
  - {fileID: 2141698675}
  m_Father: {fileID: 0}
  m_RootOrder: 5
  m_LocalEulerAnglesHint: {x: 0, y: 0, z: 0}
--- !u!1001 &1011075448
PrefabInstance:
  m_ObjectHideFlags: 0
  serializedVersion: 2
  m_Modification:
    m_TransformParent: {fileID: 822758257}
    m_Modifications:
    - target: {fileID: 1078755997285888, guid: f8f67d766d3ce4631a946298773ec89d, type: 3}
      propertyPath: m_Name
      value: Arrow (7)
      objectReference: {fileID: 0}
    - target: {fileID: 4765971397706330, guid: f8f67d766d3ce4631a946298773ec89d, type: 3}
      propertyPath: m_LocalPosition.x
      value: 1.9
      objectReference: {fileID: 0}
    - target: {fileID: 4765971397706330, guid: f8f67d766d3ce4631a946298773ec89d, type: 3}
      propertyPath: m_LocalPosition.y
      value: 0
      objectReference: {fileID: 0}
    - target: {fileID: 4765971397706330, guid: f8f67d766d3ce4631a946298773ec89d, type: 3}
      propertyPath: m_LocalPosition.z
      value: 4.11
      objectReference: {fileID: 0}
    - target: {fileID: 4765971397706330, guid: f8f67d766d3ce4631a946298773ec89d, type: 3}
      propertyPath: m_LocalRotation.x
      value: -0
      objectReference: {fileID: 0}
    - target: {fileID: 4765971397706330, guid: f8f67d766d3ce4631a946298773ec89d, type: 3}
      propertyPath: m_LocalRotation.y
      value: -0
      objectReference: {fileID: 0}
    - target: {fileID: 4765971397706330, guid: f8f67d766d3ce4631a946298773ec89d, type: 3}
      propertyPath: m_LocalRotation.z
      value: -0
      objectReference: {fileID: 0}
    - target: {fileID: 4765971397706330, guid: f8f67d766d3ce4631a946298773ec89d, type: 3}
      propertyPath: m_LocalRotation.w
      value: 1
      objectReference: {fileID: 0}
    - target: {fileID: 4765971397706330, guid: f8f67d766d3ce4631a946298773ec89d, type: 3}
      propertyPath: m_RootOrder
      value: 7
      objectReference: {fileID: 0}
    - target: {fileID: 4765971397706330, guid: f8f67d766d3ce4631a946298773ec89d, type: 3}
      propertyPath: m_LocalScale.x
      value: 0.29999998
      objectReference: {fileID: 0}
    - target: {fileID: 4765971397706330, guid: f8f67d766d3ce4631a946298773ec89d, type: 3}
      propertyPath: m_LocalScale.y
      value: 0.29999998
      objectReference: {fileID: 0}
    - target: {fileID: 4765971397706330, guid: f8f67d766d3ce4631a946298773ec89d, type: 3}
      propertyPath: m_LocalScale.z
      value: 0.29999998
      objectReference: {fileID: 0}
    m_RemovedComponents: []
  m_SourcePrefab: {fileID: 100100000, guid: f8f67d766d3ce4631a946298773ec89d, type: 3}
--- !u!4 &1011075449 stripped
Transform:
  m_CorrespondingSourceObject: {fileID: 4765971397706330, guid: f8f67d766d3ce4631a946298773ec89d,
    type: 3}
  m_PrefabInstance: {fileID: 1011075448}
  m_PrefabAsset: {fileID: 0}
--- !u!1001 &1040061947
PrefabInstance:
  m_ObjectHideFlags: 0
  serializedVersion: 2
  m_Modification:
    m_TransformParent: {fileID: 822758257}
    m_Modifications:
    - target: {fileID: 1078755997285888, guid: f8f67d766d3ce4631a946298773ec89d, type: 3}
      propertyPath: m_Name
      value: Arrow (5)
      objectReference: {fileID: 0}
    - target: {fileID: 4765971397706330, guid: f8f67d766d3ce4631a946298773ec89d, type: 3}
      propertyPath: m_LocalPosition.x
      value: -0.07
      objectReference: {fileID: 0}
    - target: {fileID: 4765971397706330, guid: f8f67d766d3ce4631a946298773ec89d, type: 3}
      propertyPath: m_LocalPosition.y
      value: 0
      objectReference: {fileID: 0}
    - target: {fileID: 4765971397706330, guid: f8f67d766d3ce4631a946298773ec89d, type: 3}
      propertyPath: m_LocalPosition.z
      value: 6.89
      objectReference: {fileID: 0}
    - target: {fileID: 4765971397706330, guid: f8f67d766d3ce4631a946298773ec89d, type: 3}
      propertyPath: m_LocalRotation.x
      value: -0
      objectReference: {fileID: 0}
    - target: {fileID: 4765971397706330, guid: f8f67d766d3ce4631a946298773ec89d, type: 3}
      propertyPath: m_LocalRotation.y
      value: -0
      objectReference: {fileID: 0}
    - target: {fileID: 4765971397706330, guid: f8f67d766d3ce4631a946298773ec89d, type: 3}
      propertyPath: m_LocalRotation.z
      value: -0
      objectReference: {fileID: 0}
    - target: {fileID: 4765971397706330, guid: f8f67d766d3ce4631a946298773ec89d, type: 3}
      propertyPath: m_LocalRotation.w
      value: 1
      objectReference: {fileID: 0}
    - target: {fileID: 4765971397706330, guid: f8f67d766d3ce4631a946298773ec89d, type: 3}
      propertyPath: m_RootOrder
      value: 5
      objectReference: {fileID: 0}
    - target: {fileID: 4765971397706330, guid: f8f67d766d3ce4631a946298773ec89d, type: 3}
      propertyPath: m_LocalScale.x
      value: 0.29999998
      objectReference: {fileID: 0}
    - target: {fileID: 4765971397706330, guid: f8f67d766d3ce4631a946298773ec89d, type: 3}
      propertyPath: m_LocalScale.y
      value: 0.29999998
      objectReference: {fileID: 0}
    - target: {fileID: 4765971397706330, guid: f8f67d766d3ce4631a946298773ec89d, type: 3}
      propertyPath: m_LocalScale.z
      value: 0.29999998
      objectReference: {fileID: 0}
    m_RemovedComponents: []
  m_SourcePrefab: {fileID: 100100000, guid: f8f67d766d3ce4631a946298773ec89d, type: 3}
--- !u!4 &1040061948 stripped
Transform:
  m_CorrespondingSourceObject: {fileID: 4765971397706330, guid: f8f67d766d3ce4631a946298773ec89d,
    type: 3}
  m_PrefabInstance: {fileID: 1040061947}
  m_PrefabAsset: {fileID: 0}
--- !u!1001 &1150129052
PrefabInstance:
  m_ObjectHideFlags: 0
  serializedVersion: 2
  m_Modification:
    m_TransformParent: {fileID: 822758257}
    m_Modifications:
    - target: {fileID: 1078755997285888, guid: f8f67d766d3ce4631a946298773ec89d, type: 3}
      propertyPath: m_Name
      value: Arrow (15)
      objectReference: {fileID: 0}
    - target: {fileID: 4765971397706330, guid: f8f67d766d3ce4631a946298773ec89d, type: 3}
      propertyPath: m_LocalPosition.x
      value: 0
      objectReference: {fileID: 0}
    - target: {fileID: 4765971397706330, guid: f8f67d766d3ce4631a946298773ec89d, type: 3}
      propertyPath: m_LocalPosition.y
      value: 0
      objectReference: {fileID: 0}
    - target: {fileID: 4765971397706330, guid: f8f67d766d3ce4631a946298773ec89d, type: 3}
      propertyPath: m_LocalPosition.z
      value: -0.04
      objectReference: {fileID: 0}
    - target: {fileID: 4765971397706330, guid: f8f67d766d3ce4631a946298773ec89d, type: 3}
      propertyPath: m_LocalRotation.x
      value: -0
      objectReference: {fileID: 0}
    - target: {fileID: 4765971397706330, guid: f8f67d766d3ce4631a946298773ec89d, type: 3}
      propertyPath: m_LocalRotation.y
      value: -0
      objectReference: {fileID: 0}
    - target: {fileID: 4765971397706330, guid: f8f67d766d3ce4631a946298773ec89d, type: 3}
      propertyPath: m_LocalRotation.z
      value: -0
      objectReference: {fileID: 0}
    - target: {fileID: 4765971397706330, guid: f8f67d766d3ce4631a946298773ec89d, type: 3}
      propertyPath: m_LocalRotation.w
      value: 1
      objectReference: {fileID: 0}
    - target: {fileID: 4765971397706330, guid: f8f67d766d3ce4631a946298773ec89d, type: 3}
      propertyPath: m_RootOrder
      value: 16
      objectReference: {fileID: 0}
    - target: {fileID: 4765971397706330, guid: f8f67d766d3ce4631a946298773ec89d, type: 3}
      propertyPath: m_LocalScale.x
      value: 0.29999998
      objectReference: {fileID: 0}
    - target: {fileID: 4765971397706330, guid: f8f67d766d3ce4631a946298773ec89d, type: 3}
      propertyPath: m_LocalScale.y
      value: 0.29999998
      objectReference: {fileID: 0}
    - target: {fileID: 4765971397706330, guid: f8f67d766d3ce4631a946298773ec89d, type: 3}
      propertyPath: m_LocalScale.z
      value: 0.29999998
      objectReference: {fileID: 0}
    m_RemovedComponents: []
  m_SourcePrefab: {fileID: 100100000, guid: f8f67d766d3ce4631a946298773ec89d, type: 3}
--- !u!4 &1150129053 stripped
Transform:
  m_CorrespondingSourceObject: {fileID: 4765971397706330, guid: f8f67d766d3ce4631a946298773ec89d,
    type: 3}
  m_PrefabInstance: {fileID: 1150129052}
  m_PrefabAsset: {fileID: 0}
--- !u!1 &1159099857
GameObject:
  m_ObjectHideFlags: 0
  m_CorrespondingSourceObject: {fileID: 0}
  m_PrefabInstance: {fileID: 0}
  m_PrefabAsset: {fileID: 0}
  serializedVersion: 6
  m_Component:
  - component: {fileID: 1159099863}
  - component: {fileID: 1159099862}
  - component: {fileID: 1159099861}
  - component: {fileID: 1159099860}
  - component: {fileID: 1159099859}
  - component: {fileID: 1159099858}
  m_Layer: 0
  m_Name: PlacenoteCameraManager
  m_TagString: Untagged
  m_Icon: {fileID: 0}
  m_NavMeshLayer: 0
  m_StaticEditorFlags: 0
  m_IsActive: 1
--- !u!114 &1159099858
MonoBehaviour:
  m_ObjectHideFlags: 0
  m_CorrespondingSourceObject: {fileID: 0}
  m_PrefabInstance: {fileID: 0}
  m_PrefabAsset: {fileID: 0}
  m_GameObject: {fileID: 1159099857}
  m_Enabled: 1
  m_EditorHideFlags: 0
  m_Script: {fileID: 11500000, guid: 712951c32e29b490fa39ee46067ee5cb, type: 3}
  m_Name: 
  m_EditorClassIdentifier: 
  DisableARRemote: 1
--- !u!114 &1159099859
MonoBehaviour:
  m_ObjectHideFlags: 0
  m_CorrespondingSourceObject: {fileID: 0}
  m_PrefabInstance: {fileID: 0}
  m_PrefabAsset: {fileID: 0}
  m_GameObject: {fileID: 1159099857}
  m_Enabled: 1
  m_EditorHideFlags: 0
  m_Script: {fileID: 11500000, guid: b1876410d8b514981a4b6492316ae3e0, type: 3}
  m_Name: 
  m_EditorClassIdentifier: 
--- !u!114 &1159099860
MonoBehaviour:
  m_ObjectHideFlags: 0
  m_CorrespondingSourceObject: {fileID: 0}
  m_PrefabInstance: {fileID: 0}
  m_PrefabAsset: {fileID: 0}
  m_GameObject: {fileID: 1159099857}
  m_Enabled: 1
  m_EditorHideFlags: 0
  m_Script: {fileID: 11500000, guid: ff5f4fbe82b37418195b1f108716eb40, type: 3}
  m_Name: 
  m_EditorClassIdentifier: 
  cameraChild: {fileID: 1799867780}
  cameraParent: {fileID: 1159099857}
--- !u!114 &1159099861
MonoBehaviour:
  m_ObjectHideFlags: 0
  m_CorrespondingSourceObject: {fileID: 0}
  m_PrefabInstance: {fileID: 0}
  m_PrefabAsset: {fileID: 0}
  m_GameObject: {fileID: 1159099857}
  m_Enabled: 1
  m_EditorHideFlags: 0
  m_Script: {fileID: 11500000, guid: 8244b0a8db9044970b67cdf6b966240b, type: 3}
  m_Name: 
  m_EditorClassIdentifier: 
  apiKey: 0sy843ockdszny3k88649q74a65inruoe44fr8qv60zbg1lpbczlus5b5kxe7sxwlmrstsl2qa7fcg7wcuy6apb0u43c0s2l1txb
--- !u!114 &1159099862
MonoBehaviour:
  m_ObjectHideFlags: 0
  m_CorrespondingSourceObject: {fileID: 0}
  m_PrefabInstance: {fileID: 0}
  m_PrefabAsset: {fileID: 0}
  m_GameObject: {fileID: 1159099857}
  m_Enabled: 1
  m_EditorHideFlags: 0
  m_Script: {fileID: 11500000, guid: 462d46d2423bb4f738d2497a397b1590, type: 3}
  m_Name: 
  m_EditorClassIdentifier: 
  m_camera: {fileID: 1799867780}
  startAlignment: 0
  planeDetection: 3
  detectionImages: {fileID: 0}
  getPointCloud: 1
  enableLightEstimation: 1
  enableAutoFocus: 1
--- !u!4 &1159099863
Transform:
  m_ObjectHideFlags: 0
  m_CorrespondingSourceObject: {fileID: 0}
  m_PrefabInstance: {fileID: 0}
  m_PrefabAsset: {fileID: 0}
  m_GameObject: {fileID: 1159099857}
  m_LocalRotation: {x: -0, y: -0, z: -0, w: 1}
  m_LocalPosition: {x: 0.29, y: 0, z: -0.17}
  m_LocalScale: {x: 1, y: 1, z: 1}
  m_Children:
  - {fileID: 1799867789}
  m_Father: {fileID: 0}
  m_RootOrder: 0
  m_LocalEulerAnglesHint: {x: 0, y: 0, z: 0}
--- !u!1001 &1241724775
PrefabInstance:
  m_ObjectHideFlags: 0
  serializedVersion: 2
  m_Modification:
    m_TransformParent: {fileID: 822758257}
    m_Modifications:
    - target: {fileID: 1078755997285888, guid: f8f67d766d3ce4631a946298773ec89d, type: 3}
      propertyPath: m_Name
      value: Arrow (12)
      objectReference: {fileID: 0}
    - target: {fileID: 4765971397706330, guid: f8f67d766d3ce4631a946298773ec89d, type: 3}
      propertyPath: m_LocalPosition.x
      value: 1
      objectReference: {fileID: 0}
    - target: {fileID: 4765971397706330, guid: f8f67d766d3ce4631a946298773ec89d, type: 3}
      propertyPath: m_LocalPosition.y
      value: 0
      objectReference: {fileID: 0}
    - target: {fileID: 4765971397706330, guid: f8f67d766d3ce4631a946298773ec89d, type: 3}
      propertyPath: m_LocalPosition.z
      value: -0.77
      objectReference: {fileID: 0}
    - target: {fileID: 4765971397706330, guid: f8f67d766d3ce4631a946298773ec89d, type: 3}
      propertyPath: m_LocalRotation.x
      value: -0
      objectReference: {fileID: 0}
    - target: {fileID: 4765971397706330, guid: f8f67d766d3ce4631a946298773ec89d, type: 3}
      propertyPath: m_LocalRotation.y
      value: -0
      objectReference: {fileID: 0}
    - target: {fileID: 4765971397706330, guid: f8f67d766d3ce4631a946298773ec89d, type: 3}
      propertyPath: m_LocalRotation.z
      value: -0
      objectReference: {fileID: 0}
    - target: {fileID: 4765971397706330, guid: f8f67d766d3ce4631a946298773ec89d, type: 3}
      propertyPath: m_LocalRotation.w
      value: 1
      objectReference: {fileID: 0}
    - target: {fileID: 4765971397706330, guid: f8f67d766d3ce4631a946298773ec89d, type: 3}
      propertyPath: m_RootOrder
      value: 13
      objectReference: {fileID: 0}
    - target: {fileID: 4765971397706330, guid: f8f67d766d3ce4631a946298773ec89d, type: 3}
      propertyPath: m_LocalScale.x
      value: 0.29999998
      objectReference: {fileID: 0}
    - target: {fileID: 4765971397706330, guid: f8f67d766d3ce4631a946298773ec89d, type: 3}
      propertyPath: m_LocalScale.y
      value: 0.29999998
      objectReference: {fileID: 0}
    - target: {fileID: 4765971397706330, guid: f8f67d766d3ce4631a946298773ec89d, type: 3}
      propertyPath: m_LocalScale.z
      value: 0.29999998
      objectReference: {fileID: 0}
    m_RemovedComponents: []
  m_SourcePrefab: {fileID: 100100000, guid: f8f67d766d3ce4631a946298773ec89d, type: 3}
--- !u!4 &1241724776 stripped
Transform:
  m_CorrespondingSourceObject: {fileID: 4765971397706330, guid: f8f67d766d3ce4631a946298773ec89d,
    type: 3}
  m_PrefabInstance: {fileID: 1241724775}
  m_PrefabAsset: {fileID: 0}
--- !u!1001 &1303295884
PrefabInstance:
  m_ObjectHideFlags: 0
  serializedVersion: 2
  m_Modification:
    m_TransformParent: {fileID: 822758257}
    m_Modifications:
    - target: {fileID: 1078755997285888, guid: f8f67d766d3ce4631a946298773ec89d, type: 3}
      propertyPath: m_Name
      value: Arrow (3)
      objectReference: {fileID: 0}
    - target: {fileID: 4765971397706330, guid: f8f67d766d3ce4631a946298773ec89d, type: 3}
      propertyPath: m_LocalPosition.x
      value: -0.015
      objectReference: {fileID: 0}
    - target: {fileID: 4765971397706330, guid: f8f67d766d3ce4631a946298773ec89d, type: 3}
      propertyPath: m_LocalPosition.y
      value: 0
      objectReference: {fileID: 0}
    - target: {fileID: 4765971397706330, guid: f8f67d766d3ce4631a946298773ec89d, type: 3}
      propertyPath: m_LocalPosition.z
      value: 3.8
      objectReference: {fileID: 0}
    - target: {fileID: 4765971397706330, guid: f8f67d766d3ce4631a946298773ec89d, type: 3}
      propertyPath: m_LocalRotation.x
      value: -0
      objectReference: {fileID: 0}
    - target: {fileID: 4765971397706330, guid: f8f67d766d3ce4631a946298773ec89d, type: 3}
      propertyPath: m_LocalRotation.y
      value: -0
      objectReference: {fileID: 0}
    - target: {fileID: 4765971397706330, guid: f8f67d766d3ce4631a946298773ec89d, type: 3}
      propertyPath: m_LocalRotation.z
      value: -0
      objectReference: {fileID: 0}
    - target: {fileID: 4765971397706330, guid: f8f67d766d3ce4631a946298773ec89d, type: 3}
      propertyPath: m_LocalRotation.w
      value: 1
      objectReference: {fileID: 0}
    - target: {fileID: 4765971397706330, guid: f8f67d766d3ce4631a946298773ec89d, type: 3}
      propertyPath: m_RootOrder
      value: 3
      objectReference: {fileID: 0}
    - target: {fileID: 4765971397706330, guid: f8f67d766d3ce4631a946298773ec89d, type: 3}
      propertyPath: m_LocalScale.x
      value: 0.29999998
      objectReference: {fileID: 0}
    - target: {fileID: 4765971397706330, guid: f8f67d766d3ce4631a946298773ec89d, type: 3}
      propertyPath: m_LocalScale.y
      value: 0.29999998
      objectReference: {fileID: 0}
    - target: {fileID: 4765971397706330, guid: f8f67d766d3ce4631a946298773ec89d, type: 3}
      propertyPath: m_LocalScale.z
      value: 0.29999998
      objectReference: {fileID: 0}
    m_RemovedComponents: []
  m_SourcePrefab: {fileID: 100100000, guid: f8f67d766d3ce4631a946298773ec89d, type: 3}
--- !u!4 &1303295885 stripped
Transform:
  m_CorrespondingSourceObject: {fileID: 4765971397706330, guid: f8f67d766d3ce4631a946298773ec89d,
    type: 3}
  m_PrefabInstance: {fileID: 1303295884}
  m_PrefabAsset: {fileID: 0}
--- !u!1001 &1333720169
PrefabInstance:
  m_ObjectHideFlags: 0
  serializedVersion: 2
  m_Modification:
    m_TransformParent: {fileID: 822758257}
    m_Modifications:
    - target: {fileID: 1078755997285888, guid: f8f67d766d3ce4631a946298773ec89d, type: 3}
      propertyPath: m_Name
      value: Arrow (9)
      objectReference: {fileID: 0}
    - target: {fileID: 4765971397706330, guid: f8f67d766d3ce4631a946298773ec89d, type: 3}
      propertyPath: m_LocalPosition.x
      value: -0.03999996
      objectReference: {fileID: 0}
    - target: {fileID: 4765971397706330, guid: f8f67d766d3ce4631a946298773ec89d, type: 3}
      propertyPath: m_LocalPosition.y
      value: 0
      objectReference: {fileID: 0}
    - target: {fileID: 4765971397706330, guid: f8f67d766d3ce4631a946298773ec89d, type: 3}
      propertyPath: m_LocalPosition.z
      value: 4.84
      objectReference: {fileID: 0}
    - target: {fileID: 4765971397706330, guid: f8f67d766d3ce4631a946298773ec89d, type: 3}
      propertyPath: m_LocalRotation.x
      value: -0
      objectReference: {fileID: 0}
    - target: {fileID: 4765971397706330, guid: f8f67d766d3ce4631a946298773ec89d, type: 3}
      propertyPath: m_LocalRotation.y
      value: -0
      objectReference: {fileID: 0}
    - target: {fileID: 4765971397706330, guid: f8f67d766d3ce4631a946298773ec89d, type: 3}
      propertyPath: m_LocalRotation.z
      value: -0
      objectReference: {fileID: 0}
    - target: {fileID: 4765971397706330, guid: f8f67d766d3ce4631a946298773ec89d, type: 3}
      propertyPath: m_LocalRotation.w
      value: 1
      objectReference: {fileID: 0}
    - target: {fileID: 4765971397706330, guid: f8f67d766d3ce4631a946298773ec89d, type: 3}
      propertyPath: m_RootOrder
      value: 10
      objectReference: {fileID: 0}
    - target: {fileID: 4765971397706330, guid: f8f67d766d3ce4631a946298773ec89d, type: 3}
      propertyPath: m_LocalScale.x
      value: 0.29999998
      objectReference: {fileID: 0}
    - target: {fileID: 4765971397706330, guid: f8f67d766d3ce4631a946298773ec89d, type: 3}
      propertyPath: m_LocalScale.y
      value: 0.29999998
      objectReference: {fileID: 0}
    - target: {fileID: 4765971397706330, guid: f8f67d766d3ce4631a946298773ec89d, type: 3}
      propertyPath: m_LocalScale.z
      value: 0.29999998
      objectReference: {fileID: 0}
    m_RemovedComponents: []
  m_SourcePrefab: {fileID: 100100000, guid: f8f67d766d3ce4631a946298773ec89d, type: 3}
--- !u!4 &1333720170 stripped
Transform:
  m_CorrespondingSourceObject: {fileID: 4765971397706330, guid: f8f67d766d3ce4631a946298773ec89d,
    type: 3}
  m_PrefabInstance: {fileID: 1333720169}
  m_PrefabAsset: {fileID: 0}
--- !u!1001 &1478039725
PrefabInstance:
  m_ObjectHideFlags: 0
  serializedVersion: 2
  m_Modification:
    m_TransformParent: {fileID: 822758257}
    m_Modifications:
    - target: {fileID: 4765971397706330, guid: f8f67d766d3ce4631a946298773ec89d, type: 3}
      propertyPath: m_LocalPosition.x
      value: 0
      objectReference: {fileID: 0}
    - target: {fileID: 4765971397706330, guid: f8f67d766d3ce4631a946298773ec89d, type: 3}
      propertyPath: m_LocalPosition.y
      value: 0
      objectReference: {fileID: 0}
    - target: {fileID: 4765971397706330, guid: f8f67d766d3ce4631a946298773ec89d, type: 3}
      propertyPath: m_LocalPosition.z
      value: 1.06
      objectReference: {fileID: 0}
    - target: {fileID: 4765971397706330, guid: f8f67d766d3ce4631a946298773ec89d, type: 3}
      propertyPath: m_LocalRotation.x
      value: -0
      objectReference: {fileID: 0}
    - target: {fileID: 4765971397706330, guid: f8f67d766d3ce4631a946298773ec89d, type: 3}
      propertyPath: m_LocalRotation.y
      value: -0
      objectReference: {fileID: 0}
    - target: {fileID: 4765971397706330, guid: f8f67d766d3ce4631a946298773ec89d, type: 3}
      propertyPath: m_LocalRotation.z
      value: -0
      objectReference: {fileID: 0}
    - target: {fileID: 4765971397706330, guid: f8f67d766d3ce4631a946298773ec89d, type: 3}
      propertyPath: m_LocalRotation.w
      value: 1
      objectReference: {fileID: 0}
    - target: {fileID: 4765971397706330, guid: f8f67d766d3ce4631a946298773ec89d, type: 3}
      propertyPath: m_RootOrder
      value: 0
      objectReference: {fileID: 0}
    m_RemovedComponents: []
  m_SourcePrefab: {fileID: 100100000, guid: f8f67d766d3ce4631a946298773ec89d, type: 3}
--- !u!4 &1478039726 stripped
Transform:
  m_CorrespondingSourceObject: {fileID: 4765971397706330, guid: f8f67d766d3ce4631a946298773ec89d,
    type: 3}
  m_PrefabInstance: {fileID: 1478039725}
  m_PrefabAsset: {fileID: 0}
--- !u!1001 &1595085414
PrefabInstance:
  m_ObjectHideFlags: 0
  serializedVersion: 2
  m_Modification:
    m_TransformParent: {fileID: 822758257}
    m_Modifications:
    - target: {fileID: 1078755997285888, guid: f8f67d766d3ce4631a946298773ec89d, type: 3}
      propertyPath: m_Name
      value: Arrow (2)
      objectReference: {fileID: 0}
    - target: {fileID: 4765971397706330, guid: f8f67d766d3ce4631a946298773ec89d, type: 3}
      propertyPath: m_LocalPosition.x
      value: 0.022
      objectReference: {fileID: 0}
    - target: {fileID: 4765971397706330, guid: f8f67d766d3ce4631a946298773ec89d, type: 3}
      propertyPath: m_LocalPosition.y
      value: 0
      objectReference: {fileID: 0}
    - target: {fileID: 4765971397706330, guid: f8f67d766d3ce4631a946298773ec89d, type: 3}
      propertyPath: m_LocalPosition.z
      value: 2.9
      objectReference: {fileID: 0}
    - target: {fileID: 4765971397706330, guid: f8f67d766d3ce4631a946298773ec89d, type: 3}
      propertyPath: m_LocalRotation.x
      value: -0
      objectReference: {fileID: 0}
    - target: {fileID: 4765971397706330, guid: f8f67d766d3ce4631a946298773ec89d, type: 3}
      propertyPath: m_LocalRotation.y
      value: -0
      objectReference: {fileID: 0}
    - target: {fileID: 4765971397706330, guid: f8f67d766d3ce4631a946298773ec89d, type: 3}
      propertyPath: m_LocalRotation.z
      value: -0
      objectReference: {fileID: 0}
    - target: {fileID: 4765971397706330, guid: f8f67d766d3ce4631a946298773ec89d, type: 3}
      propertyPath: m_LocalRotation.w
      value: 1
      objectReference: {fileID: 0}
    - target: {fileID: 4765971397706330, guid: f8f67d766d3ce4631a946298773ec89d, type: 3}
      propertyPath: m_RootOrder
      value: 2
      objectReference: {fileID: 0}
    - target: {fileID: 4765971397706330, guid: f8f67d766d3ce4631a946298773ec89d, type: 3}
      propertyPath: m_LocalScale.x
      value: 0.29999998
      objectReference: {fileID: 0}
    - target: {fileID: 4765971397706330, guid: f8f67d766d3ce4631a946298773ec89d, type: 3}
      propertyPath: m_LocalScale.y
      value: 0.29999998
      objectReference: {fileID: 0}
    - target: {fileID: 4765971397706330, guid: f8f67d766d3ce4631a946298773ec89d, type: 3}
      propertyPath: m_LocalScale.z
      value: 0.29999998
      objectReference: {fileID: 0}
    m_RemovedComponents: []
  m_SourcePrefab: {fileID: 100100000, guid: f8f67d766d3ce4631a946298773ec89d, type: 3}
--- !u!4 &1595085415 stripped
Transform:
  m_CorrespondingSourceObject: {fileID: 4765971397706330, guid: f8f67d766d3ce4631a946298773ec89d,
    type: 3}
  m_PrefabInstance: {fileID: 1595085414}
  m_PrefabAsset: {fileID: 0}
--- !u!1001 &1622394613
PrefabInstance:
  m_ObjectHideFlags: 0
  serializedVersion: 2
  m_Modification:
    m_TransformParent: {fileID: 822758257}
    m_Modifications:
    - target: {fileID: 1160887633394466, guid: eedaac2fc25db4ab99371a7c1f59dd58, type: 3}
      propertyPath: m_Name
      value: diamond
      objectReference: {fileID: 0}
    - target: {fileID: 4872432487387244, guid: eedaac2fc25db4ab99371a7c1f59dd58, type: 3}
      propertyPath: m_LocalPosition.x
      value: 2.93
      objectReference: {fileID: 0}
    - target: {fileID: 4872432487387244, guid: eedaac2fc25db4ab99371a7c1f59dd58, type: 3}
      propertyPath: m_LocalPosition.y
      value: 0
      objectReference: {fileID: 0}
    - target: {fileID: 4872432487387244, guid: eedaac2fc25db4ab99371a7c1f59dd58, type: 3}
      propertyPath: m_LocalPosition.z
      value: 3.93
      objectReference: {fileID: 0}
    - target: {fileID: 4872432487387244, guid: eedaac2fc25db4ab99371a7c1f59dd58, type: 3}
      propertyPath: m_LocalRotation.x
      value: -0
      objectReference: {fileID: 0}
    - target: {fileID: 4872432487387244, guid: eedaac2fc25db4ab99371a7c1f59dd58, type: 3}
      propertyPath: m_LocalRotation.y
      value: -0
      objectReference: {fileID: 0}
    - target: {fileID: 4872432487387244, guid: eedaac2fc25db4ab99371a7c1f59dd58, type: 3}
      propertyPath: m_LocalRotation.z
      value: -0
      objectReference: {fileID: 0}
    - target: {fileID: 4872432487387244, guid: eedaac2fc25db4ab99371a7c1f59dd58, type: 3}
      propertyPath: m_LocalRotation.w
      value: 1
      objectReference: {fileID: 0}
    - target: {fileID: 4872432487387244, guid: eedaac2fc25db4ab99371a7c1f59dd58, type: 3}
      propertyPath: m_RootOrder
      value: 9
      objectReference: {fileID: 0}
    - target: {fileID: 4872432487387244, guid: eedaac2fc25db4ab99371a7c1f59dd58, type: 3}
      propertyPath: m_LocalEulerAnglesHint.x
      value: 0
      objectReference: {fileID: 0}
    - target: {fileID: 4872432487387244, guid: eedaac2fc25db4ab99371a7c1f59dd58, type: 3}
      propertyPath: m_LocalEulerAnglesHint.y
      value: 0
      objectReference: {fileID: 0}
    - target: {fileID: 4872432487387244, guid: eedaac2fc25db4ab99371a7c1f59dd58, type: 3}
      propertyPath: m_LocalEulerAnglesHint.z
      value: 0
      objectReference: {fileID: 0}
    m_RemovedComponents: []
  m_SourcePrefab: {fileID: 100100000, guid: eedaac2fc25db4ab99371a7c1f59dd58, type: 3}
--- !u!4 &1622394614 stripped
Transform:
  m_CorrespondingSourceObject: {fileID: 4872432487387244, guid: eedaac2fc25db4ab99371a7c1f59dd58,
    type: 3}
  m_PrefabInstance: {fileID: 1622394613}
  m_PrefabAsset: {fileID: 0}
--- !u!1001 &1702714616
PrefabInstance:
  m_ObjectHideFlags: 0
  serializedVersion: 2
  m_Modification:
    m_TransformParent: {fileID: 822758257}
    m_Modifications:
    - target: {fileID: 1078755997285888, guid: f8f67d766d3ce4631a946298773ec89d, type: 3}
      propertyPath: m_Name
      value: Arrow (13)
      objectReference: {fileID: 0}
    - target: {fileID: 4765971397706330, guid: f8f67d766d3ce4631a946298773ec89d, type: 3}
      propertyPath: m_LocalPosition.x
      value: 1.78
      objectReference: {fileID: 0}
    - target: {fileID: 4765971397706330, guid: f8f67d766d3ce4631a946298773ec89d, type: 3}
      propertyPath: m_LocalPosition.y
      value: 0
      objectReference: {fileID: 0}
    - target: {fileID: 4765971397706330, guid: f8f67d766d3ce4631a946298773ec89d, type: 3}
      propertyPath: m_LocalPosition.z
      value: -0.75
      objectReference: {fileID: 0}
    - target: {fileID: 4765971397706330, guid: f8f67d766d3ce4631a946298773ec89d, type: 3}
      propertyPath: m_LocalRotation.x
      value: -0
      objectReference: {fileID: 0}
    - target: {fileID: 4765971397706330, guid: f8f67d766d3ce4631a946298773ec89d, type: 3}
      propertyPath: m_LocalRotation.y
      value: -0
      objectReference: {fileID: 0}
    - target: {fileID: 4765971397706330, guid: f8f67d766d3ce4631a946298773ec89d, type: 3}
      propertyPath: m_LocalRotation.z
      value: -0
      objectReference: {fileID: 0}
    - target: {fileID: 4765971397706330, guid: f8f67d766d3ce4631a946298773ec89d, type: 3}
      propertyPath: m_LocalRotation.w
      value: 1
      objectReference: {fileID: 0}
    - target: {fileID: 4765971397706330, guid: f8f67d766d3ce4631a946298773ec89d, type: 3}
      propertyPath: m_RootOrder
      value: 14
      objectReference: {fileID: 0}
    - target: {fileID: 4765971397706330, guid: f8f67d766d3ce4631a946298773ec89d, type: 3}
      propertyPath: m_LocalScale.x
      value: 0.29999998
      objectReference: {fileID: 0}
    - target: {fileID: 4765971397706330, guid: f8f67d766d3ce4631a946298773ec89d, type: 3}
      propertyPath: m_LocalScale.y
      value: 0.29999998
      objectReference: {fileID: 0}
    - target: {fileID: 4765971397706330, guid: f8f67d766d3ce4631a946298773ec89d, type: 3}
      propertyPath: m_LocalScale.z
      value: 0.29999998
      objectReference: {fileID: 0}
    m_RemovedComponents: []
  m_SourcePrefab: {fileID: 100100000, guid: f8f67d766d3ce4631a946298773ec89d, type: 3}
--- !u!4 &1702714617 stripped
Transform:
  m_CorrespondingSourceObject: {fileID: 4765971397706330, guid: f8f67d766d3ce4631a946298773ec89d,
    type: 3}
  m_PrefabInstance: {fileID: 1702714616}
  m_PrefabAsset: {fileID: 0}
--- !u!1 &1799867779
GameObject:
  m_ObjectHideFlags: 0
  m_CorrespondingSourceObject: {fileID: 0}
  m_PrefabInstance: {fileID: 0}
  m_PrefabAsset: {fileID: 0}
  serializedVersion: 6
  m_Component:
  - component: {fileID: 1799867789}
  - component: {fileID: 1799867780}
  - component: {fileID: 1799867788}
  - component: {fileID: 1799867787}
  - component: {fileID: 1799867786}
  - component: {fileID: 1799867785}
  - component: {fileID: 1799867784}
  - component: {fileID: 1799867783}
  - component: {fileID: 1799867782}
  - component: {fileID: 1799867781}
  - component: {fileID: 1799867790}
  - component: {fileID: 1799867791}
  m_Layer: 8
  m_Name: Main Camera
  m_TagString: MainCamera
  m_Icon: {fileID: 0}
  m_NavMeshLayer: 0
  m_StaticEditorFlags: 0
  m_IsActive: 1
--- !u!20 &1799867780
Camera:
  m_ObjectHideFlags: 0
  m_CorrespondingSourceObject: {fileID: 0}
  m_PrefabInstance: {fileID: 0}
  m_PrefabAsset: {fileID: 0}
  m_GameObject: {fileID: 1799867779}
  m_Enabled: 1
  serializedVersion: 2
  m_ClearFlags: 3
  m_BackGroundColor: {r: 0.19215687, g: 0.3019608, b: 0.4745098, a: 0}
  m_projectionMatrixMode: 1
  m_SensorSize: {x: 36, y: 24}
  m_LensShift: {x: 0, y: 0}
  m_GateFitMode: 2
  m_FocalLength: 50
  m_NormalizedViewPortRect:
    serializedVersion: 2
    x: 0
    y: 0
    width: 1
    height: 1
  near clip plane: 0.01
  far clip plane: 10
  field of view: 60
  orthographic: 0
  orthographic size: 5
  m_Depth: -1
  m_CullingMask:
    serializedVersion: 2
    m_Bits: 4294967295
  m_RenderingPath: -1
  m_TargetTexture: {fileID: 0}
  m_TargetDisplay: 0
  m_TargetEye: 3
  m_HDR: 1
  m_AllowMSAA: 1
  m_AllowDynamicResolution: 0
  m_ForceIntoRT: 0
  m_OcclusionCulling: 1
  m_StereoConvergence: 10
  m_StereoSeparation: 0.022
--- !u!136 &1799867781
CapsuleCollider:
  m_ObjectHideFlags: 0
  m_CorrespondingSourceObject: {fileID: 0}
  m_PrefabInstance: {fileID: 0}
  m_PrefabAsset: {fileID: 0}
  m_GameObject: {fileID: 1799867779}
  m_Material: {fileID: 0}
  m_IsTrigger: 1
  m_Enabled: 1
  m_Radius: 1
  m_Height: 6
  m_Direction: 1
  m_Center: {x: 0, y: 0, z: 0}
--- !u!114 &1799867782
MonoBehaviour:
  m_ObjectHideFlags: 0
  m_CorrespondingSourceObject: {fileID: 0}
  m_PrefabInstance: {fileID: 0}
  m_PrefabAsset: {fileID: 0}
  m_GameObject: {fileID: 1799867779}
  m_Enabled: 1
  m_EditorHideFlags: 0
  m_Script: {fileID: 11500000, guid: 5403d71c7a7fa426c825c78e009a8ce7, type: 3}
  m_Name: 
  m_EditorClassIdentifier: 
  AStar: {fileID: 1799867791}
--- !u!114 &1799867783
MonoBehaviour:
  m_ObjectHideFlags: 0
  m_CorrespondingSourceObject: {fileID: 0}
  m_PrefabInstance: {fileID: 0}
  m_PrefabAsset: {fileID: 0}
  m_GameObject: {fileID: 1799867779}
  m_Enabled: 1
  m_EditorHideFlags: 0
  m_Script: {fileID: 11500000, guid: f87e4989c5e703e428df4339d59e2c72, type: 3}
  m_Name: 
  m_EditorClassIdentifier: 
  showMainBehavior: 1
  showInnerGlowBehavior: 1
  rtFormat: 0
  blurShader: {fileID: 4800000, guid: 1855d9636fad3914bacc4a543165c974, type: 3}
  compositeShader: {fileID: 4800000, guid: e384de4389ba527479054baf0ddb1d3e, type: 3}
  selectiveRenderShader: {fileID: 4800000, guid: c04b7cae8accdfb4e9c2648823ff39d7,
    type: 3}
  glowLayer:
    serializedVersion: 2
    m_Bits: 256
  glowType: 0
  glowTint: {r: 1, g: 1, b: 1, a: 0}
  blurSpreadInner: 1.2
  blurIterations: 7
  glowIntensityInner: 0.362
  samples: 3
--- !u!114 &1799867784
MonoBehaviour:
  m_ObjectHideFlags: 0
  m_CorrespondingSourceObject: {fileID: 0}
  m_PrefabInstance: {fileID: 0}
  m_PrefabAsset: {fileID: 0}
  m_GameObject: {fileID: 1799867779}
  m_Enabled: 1
  m_EditorHideFlags: 0
  m_Script: {fileID: 11500000, guid: a341b2177fbb649d6889d31dcff2b302, type: 3}
  m_Name: 
  m_EditorClassIdentifier: 
  mCamera: {fileID: 1799867780}
--- !u!114 &1799867785
MonoBehaviour:
  m_ObjectHideFlags: 0
  m_CorrespondingSourceObject: {fileID: 0}
  m_PrefabInstance: {fileID: 0}
  m_PrefabAsset: {fileID: 0}
  m_GameObject: {fileID: 1799867779}
  m_Enabled: 1
  m_EditorHideFlags: 0
  m_Script: {fileID: 11500000, guid: ce437cef046e841aabd6070890e79d41, type: 3}
  m_Name: 
  m_EditorClassIdentifier: 
--- !u!114 &1799867786
MonoBehaviour:
  m_ObjectHideFlags: 0
  m_CorrespondingSourceObject: {fileID: 0}
  m_PrefabInstance: {fileID: 0}
  m_PrefabAsset: {fileID: 0}
  m_GameObject: {fileID: 1799867779}
  m_Enabled: 1
  m_EditorHideFlags: 0
  m_Script: {fileID: 11500000, guid: b58ecea7a196242dd879c814ac05084c, type: 3}
  m_Name: 
  m_EditorClassIdentifier: 
  m_ClearMaterial: {fileID: 2100000, guid: f1d9352050a75486f878ab19fa578f16, type: 2}
--- !u!81 &1799867787
AudioListener:
  m_ObjectHideFlags: 0
  m_CorrespondingSourceObject: {fileID: 0}
  m_PrefabInstance: {fileID: 0}
  m_PrefabAsset: {fileID: 0}
  m_GameObject: {fileID: 1799867779}
  m_Enabled: 1
--- !u!124 &1799867788
Behaviour:
  m_ObjectHideFlags: 0
  m_CorrespondingSourceObject: {fileID: 0}
  m_PrefabInstance: {fileID: 0}
  m_PrefabAsset: {fileID: 0}
  m_GameObject: {fileID: 1799867779}
  m_Enabled: 1
--- !u!4 &1799867789
Transform:
  m_ObjectHideFlags: 0
  m_CorrespondingSourceObject: {fileID: 0}
  m_PrefabInstance: {fileID: 0}
  m_PrefabAsset: {fileID: 0}
  m_GameObject: {fileID: 1799867779}
  m_LocalRotation: {x: -0, y: -0, z: -0, w: 1}
  m_LocalPosition: {x: 0, y: 0, z: 0}
  m_LocalScale: {x: 1, y: 1, z: 1}
  m_Children: []
  m_Father: {fileID: 1159099863}
  m_RootOrder: 0
  m_LocalEulerAnglesHint: {x: 0, y: 0, z: 0}
--- !u!54 &1799867790
Rigidbody:
  m_ObjectHideFlags: 0
  m_CorrespondingSourceObject: {fileID: 0}
  m_PrefabInstance: {fileID: 0}
  m_PrefabAsset: {fileID: 0}
  m_GameObject: {fileID: 1799867779}
  serializedVersion: 2
  m_Mass: 1
  m_Drag: 0
  m_AngularDrag: 0.05
  m_UseGravity: 0
  m_IsKinematic: 0
  m_Interpolate: 0
  m_Constraints: 0
  m_CollisionDetection: 0
--- !u!114 &1799867791
MonoBehaviour:
  m_ObjectHideFlags: 0
  m_CorrespondingSourceObject: {fileID: 0}
  m_PrefabInstance: {fileID: 0}
  m_PrefabAsset: {fileID: 0}
  m_GameObject: {fileID: 1799867779}
  m_Enabled: 1
  m_EditorHideFlags: 0
  m_Script: {fileID: 11500000, guid: a99c6f4e751ef4b41a6b76778838e340, type: 3}
  m_Name: 
  m_EditorClassIdentifier: 
--- !u!1001 &1855402967
PrefabInstance:
  m_ObjectHideFlags: 0
  serializedVersion: 2
  m_Modification:
    m_TransformParent: {fileID: 822758257}
    m_Modifications:
    - target: {fileID: 1078755997285888, guid: f8f67d766d3ce4631a946298773ec89d, type: 3}
      propertyPath: m_Name
      value: Arrow (14)
      objectReference: {fileID: 0}
    - target: {fileID: 1078755997285888, guid: f8f67d766d3ce4631a946298773ec89d, type: 3}
      propertyPath: m_IsActive
      value: 1
      objectReference: {fileID: 0}
    - target: {fileID: 4765971397706330, guid: f8f67d766d3ce4631a946298773ec89d, type: 3}
      propertyPath: m_LocalPosition.x
      value: -0.025000006
      objectReference: {fileID: 0}
    - target: {fileID: 4765971397706330, guid: f8f67d766d3ce4631a946298773ec89d, type: 3}
      propertyPath: m_LocalPosition.y
      value: 0
      objectReference: {fileID: 0}
    - target: {fileID: 4765971397706330, guid: f8f67d766d3ce4631a946298773ec89d, type: 3}
      propertyPath: m_LocalPosition.z
      value: 1.81
      objectReference: {fileID: 0}
    - target: {fileID: 4765971397706330, guid: f8f67d766d3ce4631a946298773ec89d, type: 3}
      propertyPath: m_LocalRotation.x
      value: -0
      objectReference: {fileID: 0}
    - target: {fileID: 4765971397706330, guid: f8f67d766d3ce4631a946298773ec89d, type: 3}
      propertyPath: m_LocalRotation.y
      value: -0
      objectReference: {fileID: 0}
    - target: {fileID: 4765971397706330, guid: f8f67d766d3ce4631a946298773ec89d, type: 3}
      propertyPath: m_LocalRotation.z
      value: -0
      objectReference: {fileID: 0}
    - target: {fileID: 4765971397706330, guid: f8f67d766d3ce4631a946298773ec89d, type: 3}
      propertyPath: m_LocalRotation.w
      value: 1
      objectReference: {fileID: 0}
    - target: {fileID: 4765971397706330, guid: f8f67d766d3ce4631a946298773ec89d, type: 3}
      propertyPath: m_RootOrder
      value: 15
      objectReference: {fileID: 0}
    - target: {fileID: 4765971397706330, guid: f8f67d766d3ce4631a946298773ec89d, type: 3}
      propertyPath: m_LocalScale.x
      value: 0.29999998
      objectReference: {fileID: 0}
    - target: {fileID: 4765971397706330, guid: f8f67d766d3ce4631a946298773ec89d, type: 3}
      propertyPath: m_LocalScale.y
      value: 0.29999998
      objectReference: {fileID: 0}
    - target: {fileID: 4765971397706330, guid: f8f67d766d3ce4631a946298773ec89d, type: 3}
      propertyPath: m_LocalScale.z
      value: 0.29999998
      objectReference: {fileID: 0}
    m_RemovedComponents: []
  m_SourcePrefab: {fileID: 100100000, guid: f8f67d766d3ce4631a946298773ec89d, type: 3}
--- !u!4 &1855402968 stripped
Transform:
  m_CorrespondingSourceObject: {fileID: 4765971397706330, guid: f8f67d766d3ce4631a946298773ec89d,
    type: 3}
  m_PrefabInstance: {fileID: 1855402967}
  m_PrefabAsset: {fileID: 0}
--- !u!1001 &1862581021
PrefabInstance:
  m_ObjectHideFlags: 0
  serializedVersion: 2
  m_Modification:
    m_TransformParent: {fileID: 822758257}
    m_Modifications:
    - target: {fileID: 1078755997285888, guid: f8f67d766d3ce4631a946298773ec89d, type: 3}
      propertyPath: m_Name
      value: Arrow (4)
      objectReference: {fileID: 0}
    - target: {fileID: 4765971397706330, guid: f8f67d766d3ce4631a946298773ec89d, type: 3}
      propertyPath: m_LocalPosition.x
      value: -0.97
      objectReference: {fileID: 0}
    - target: {fileID: 4765971397706330, guid: f8f67d766d3ce4631a946298773ec89d, type: 3}
      propertyPath: m_LocalPosition.y
      value: 0
      objectReference: {fileID: 0}
    - target: {fileID: 4765971397706330, guid: f8f67d766d3ce4631a946298773ec89d, type: 3}
      propertyPath: m_LocalPosition.z
      value: 3.96
      objectReference: {fileID: 0}
    - target: {fileID: 4765971397706330, guid: f8f67d766d3ce4631a946298773ec89d, type: 3}
      propertyPath: m_LocalRotation.x
      value: -0
      objectReference: {fileID: 0}
    - target: {fileID: 4765971397706330, guid: f8f67d766d3ce4631a946298773ec89d, type: 3}
      propertyPath: m_LocalRotation.y
      value: -0
      objectReference: {fileID: 0}
    - target: {fileID: 4765971397706330, guid: f8f67d766d3ce4631a946298773ec89d, type: 3}
      propertyPath: m_LocalRotation.z
      value: -0
      objectReference: {fileID: 0}
    - target: {fileID: 4765971397706330, guid: f8f67d766d3ce4631a946298773ec89d, type: 3}
      propertyPath: m_LocalRotation.w
      value: 1
      objectReference: {fileID: 0}
    - target: {fileID: 4765971397706330, guid: f8f67d766d3ce4631a946298773ec89d, type: 3}
      propertyPath: m_RootOrder
      value: 4
      objectReference: {fileID: 0}
    - target: {fileID: 4765971397706330, guid: f8f67d766d3ce4631a946298773ec89d, type: 3}
      propertyPath: m_LocalScale.x
      value: 0.29999998
      objectReference: {fileID: 0}
    - target: {fileID: 4765971397706330, guid: f8f67d766d3ce4631a946298773ec89d, type: 3}
      propertyPath: m_LocalScale.y
      value: 0.29999998
      objectReference: {fileID: 0}
    - target: {fileID: 4765971397706330, guid: f8f67d766d3ce4631a946298773ec89d, type: 3}
      propertyPath: m_LocalScale.z
      value: 0.29999998
      objectReference: {fileID: 0}
    m_RemovedComponents: []
  m_SourcePrefab: {fileID: 100100000, guid: f8f67d766d3ce4631a946298773ec89d, type: 3}
--- !u!4 &1862581022 stripped
Transform:
  m_CorrespondingSourceObject: {fileID: 4765971397706330, guid: f8f67d766d3ce4631a946298773ec89d,
    type: 3}
  m_PrefabInstance: {fileID: 1862581021}
  m_PrefabAsset: {fileID: 0}
--- !u!1 &1927656046
GameObject:
  m_ObjectHideFlags: 0
  m_CorrespondingSourceObject: {fileID: 0}
  m_PrefabInstance: {fileID: 0}
  m_PrefabAsset: {fileID: 0}
  serializedVersion: 6
  m_Component:
  - component: {fileID: 1927656050}
  - component: {fileID: 1927656049}
  - component: {fileID: 1927656048}
  - component: {fileID: 1927656047}
  m_Layer: 0
  m_Name: PlacenoteMap
  m_TagString: Untagged
  m_Icon: {fileID: 0}
  m_NavMeshLayer: 0
  m_StaticEditorFlags: 0
  m_IsActive: 1
--- !u!23 &1927656047
MeshRenderer:
  m_ObjectHideFlags: 0
  m_CorrespondingSourceObject: {fileID: 0}
  m_PrefabInstance: {fileID: 0}
  m_PrefabAsset: {fileID: 0}
  m_GameObject: {fileID: 1927656046}
  m_Enabled: 1
  m_CastShadows: 1
  m_ReceiveShadows: 1
  m_DynamicOccludee: 1
  m_MotionVectors: 1
  m_LightProbeUsage: 1
  m_ReflectionProbeUsage: 1
  m_RenderingLayerMask: 4294967295
  m_RendererPriority: 0
  m_Materials:
  - {fileID: 0}
  m_StaticBatchInfo:
    firstSubMesh: 0
    subMeshCount: 0
  m_StaticBatchRoot: {fileID: 0}
  m_ProbeAnchor: {fileID: 0}
  m_LightProbeVolumeOverride: {fileID: 0}
  m_ScaleInLightmap: 1
  m_PreserveUVs: 0
  m_IgnoreNormalsForChartDetection: 0
  m_ImportantGI: 0
  m_StitchLightmapSeams: 0
  m_SelectedEditorRenderState: 3
  m_MinimumChartSize: 4
  m_AutoUVMaxDistance: 0.5
  m_AutoUVMaxAngle: 89
  m_LightmapParameters: {fileID: 0}
  m_SortingLayerID: 0
  m_SortingLayer: 0
  m_SortingOrder: 0
--- !u!33 &1927656048
MeshFilter:
  m_ObjectHideFlags: 0
  m_CorrespondingSourceObject: {fileID: 0}
  m_PrefabInstance: {fileID: 0}
  m_PrefabAsset: {fileID: 0}
  m_GameObject: {fileID: 1927656046}
  m_Mesh: {fileID: 0}
--- !u!114 &1927656049
MonoBehaviour:
  m_ObjectHideFlags: 0
  m_CorrespondingSourceObject: {fileID: 0}
  m_PrefabInstance: {fileID: 0}
  m_PrefabAsset: {fileID: 0}
  m_GameObject: {fileID: 1927656046}
  m_Enabled: 1
  m_EditorHideFlags: 0
  m_Script: {fileID: 11500000, guid: 1dc6d171d179d4740bc550e69a938e46, type: 3}
  m_Name: 
  m_EditorClassIdentifier: 
  mPtCloudMat: {fileID: 2100000, guid: 4742e6c756dd5477da6adeeb81de6a89, type: 2}
  mMap: {fileID: 1927656046}
--- !u!4 &1927656050
Transform:
  m_ObjectHideFlags: 0
  m_CorrespondingSourceObject: {fileID: 0}
  m_PrefabInstance: {fileID: 0}
  m_PrefabAsset: {fileID: 0}
  m_GameObject: {fileID: 1927656046}
  m_LocalRotation: {x: 0, y: 0, z: 0, w: 1}
  m_LocalPosition: {x: 0, y: 0, z: 0}
  m_LocalScale: {x: 1, y: 1, z: 1}
  m_Children: []
  m_Father: {fileID: 0}
  m_RootOrder: 4
  m_LocalEulerAnglesHint: {x: 0, y: 0, z: 0}
--- !u!1 &2008001053
GameObject:
  m_ObjectHideFlags: 0
  m_CorrespondingSourceObject: {fileID: 0}
  m_PrefabInstance: {fileID: 0}
  m_PrefabAsset: {fileID: 0}
  serializedVersion: 6
  m_Component:
  - component: {fileID: 2008001057}
  - component: {fileID: 2008001056}
  - component: {fileID: 2008001055}
  - component: {fileID: 2008001054}
  m_Layer: 5
  m_Name: Canvas
  m_TagString: Untagged
  m_Icon: {fileID: 0}
  m_NavMeshLayer: 0
  m_StaticEditorFlags: 0
  m_IsActive: 1
--- !u!114 &2008001054
MonoBehaviour:
  m_ObjectHideFlags: 0
  m_CorrespondingSourceObject: {fileID: 0}
  m_PrefabInstance: {fileID: 0}
  m_PrefabAsset: {fileID: 0}
  m_GameObject: {fileID: 2008001053}
  m_Enabled: 1
  m_EditorHideFlags: 0
  m_Script: {fileID: 1301386320, guid: f70555f144d8491a825f0804e09c671c, type: 3}
  m_Name: 
  m_EditorClassIdentifier: 
  m_IgnoreReversedGraphics: 1
  m_BlockingObjects: 0
  m_BlockingMask:
    serializedVersion: 2
    m_Bits: 4294967295
--- !u!114 &2008001055
MonoBehaviour:
  m_ObjectHideFlags: 0
  m_CorrespondingSourceObject: {fileID: 0}
  m_PrefabInstance: {fileID: 0}
  m_PrefabAsset: {fileID: 0}
  m_GameObject: {fileID: 2008001053}
  m_Enabled: 1
  m_EditorHideFlags: 0
  m_Script: {fileID: 1980459831, guid: f70555f144d8491a825f0804e09c671c, type: 3}
  m_Name: 
  m_EditorClassIdentifier: 
  m_UiScaleMode: 1
  m_ReferencePixelsPerUnit: 100
  m_ScaleFactor: 1
  m_ReferenceResolution: {x: 1280, y: 720}
  m_ScreenMatchMode: 0
  m_MatchWidthOrHeight: 0
  m_PhysicalUnit: 3
  m_FallbackScreenDPI: 96
  m_DefaultSpriteDPI: 96
  m_DynamicPixelsPerUnit: 1
--- !u!223 &2008001056
Canvas:
  m_ObjectHideFlags: 0
  m_CorrespondingSourceObject: {fileID: 0}
  m_PrefabInstance: {fileID: 0}
  m_PrefabAsset: {fileID: 0}
  m_GameObject: {fileID: 2008001053}
  m_Enabled: 1
  serializedVersion: 3
  m_RenderMode: 0
  m_Camera: {fileID: 0}
  m_PlaneDistance: 100
  m_PixelPerfect: 1
  m_ReceivesEvents: 1
  m_OverrideSorting: 0
  m_OverridePixelPerfect: 0
  m_SortingBucketNormalizedSize: 0
  m_AdditionalShaderChannelsFlag: 25
  m_SortingLayerID: 0
  m_SortingOrder: 0
  m_TargetDisplay: 0
--- !u!224 &2008001057
RectTransform:
  m_ObjectHideFlags: 0
  m_CorrespondingSourceObject: {fileID: 0}
  m_PrefabInstance: {fileID: 0}
  m_PrefabAsset: {fileID: 0}
  m_GameObject: {fileID: 2008001053}
  m_LocalRotation: {x: 0, y: 0, z: 0, w: 1}
  m_LocalPosition: {x: 0, y: 0, z: 0}
  m_LocalScale: {x: 0, y: 0, z: 0}
  m_Children:
  - {fileID: 766341134}
  m_Father: {fileID: 0}
  m_RootOrder: 3
  m_LocalEulerAnglesHint: {x: 0, y: 0, z: 0}
  m_AnchorMin: {x: 0, y: 0}
  m_AnchorMax: {x: 0, y: 0}
  m_AnchoredPosition: {x: 0, y: 0}
  m_SizeDelta: {x: 0, y: 0}
  m_Pivot: {x: 0, y: 0}
--- !u!1001 &2141698674
PrefabInstance:
  m_ObjectHideFlags: 0
  serializedVersion: 2
  m_Modification:
    m_TransformParent: {fileID: 822758257}
    m_Modifications:
    - target: {fileID: 1078755997285888, guid: f8f67d766d3ce4631a946298773ec89d, type: 3}
      propertyPath: m_Name
      value: Arrow (16)
      objectReference: {fileID: 0}
    - target: {fileID: 4765971397706330, guid: f8f67d766d3ce4631a946298773ec89d, type: 3}
      propertyPath: m_LocalPosition.x
      value: -0.22
      objectReference: {fileID: 0}
    - target: {fileID: 4765971397706330, guid: f8f67d766d3ce4631a946298773ec89d, type: 3}
      propertyPath: m_LocalPosition.y
      value: 0
      objectReference: {fileID: 0}
    - target: {fileID: 4765971397706330, guid: f8f67d766d3ce4631a946298773ec89d, type: 3}
      propertyPath: m_LocalPosition.z
      value: -0.03999996
      objectReference: {fileID: 0}
    - target: {fileID: 4765971397706330, guid: f8f67d766d3ce4631a946298773ec89d, type: 3}
      propertyPath: m_LocalRotation.x
      value: -0
      objectReference: {fileID: 0}
    - target: {fileID: 4765971397706330, guid: f8f67d766d3ce4631a946298773ec89d, type: 3}
      propertyPath: m_LocalRotation.y
      value: -0
      objectReference: {fileID: 0}
    - target: {fileID: 4765971397706330, guid: f8f67d766d3ce4631a946298773ec89d, type: 3}
      propertyPath: m_LocalRotation.z
      value: -0
      objectReference: {fileID: 0}
    - target: {fileID: 4765971397706330, guid: f8f67d766d3ce4631a946298773ec89d, type: 3}
      propertyPath: m_LocalRotation.w
      value: 1
      objectReference: {fileID: 0}
    - target: {fileID: 4765971397706330, guid: f8f67d766d3ce4631a946298773ec89d, type: 3}
      propertyPath: m_RootOrder
      value: 17
      objectReference: {fileID: 0}
    - target: {fileID: 4765971397706330, guid: f8f67d766d3ce4631a946298773ec89d, type: 3}
      propertyPath: m_LocalScale.x
      value: 0.29999998
      objectReference: {fileID: 0}
    - target: {fileID: 4765971397706330, guid: f8f67d766d3ce4631a946298773ec89d, type: 3}
      propertyPath: m_LocalScale.y
      value: 0.29999998
      objectReference: {fileID: 0}
    - target: {fileID: 4765971397706330, guid: f8f67d766d3ce4631a946298773ec89d, type: 3}
      propertyPath: m_LocalScale.z
      value: 0.29999998
      objectReference: {fileID: 0}
    m_RemovedComponents: []
  m_SourcePrefab: {fileID: 100100000, guid: f8f67d766d3ce4631a946298773ec89d, type: 3}
--- !u!4 &2141698675 stripped
Transform:
  m_CorrespondingSourceObject: {fileID: 4765971397706330, guid: f8f67d766d3ce4631a946298773ec89d,
    type: 3}
  m_PrefabInstance: {fileID: 2141698674}
  m_PrefabAsset: {fileID: 0}
